ST 558 - Project 1
…
sep_county_data(census_final_b)

[[1]]
# A tibble: 31,450 × 6
   area_name   STCOU  year measurement count state
   <chr>       <chr> <dbl> <chr>       <dbl> <chr>
 1 Autauga, AL 01001  1997 EDU0101      8099 " AL"
 2 Autauga, AL 01001  1998 EDU0101      8211 " AL"
 3 Autauga, AL 01001  1999 EDU0101      8489 " AL"
 4 Autauga, AL 01001  2000 EDU0102      8912 " AL"
 5 Autauga, AL 01001  2001 EDU0102      8626 " AL"
 6 Autauga, AL 01001  2002 EDU0102      8762 " AL"
 7 Autauga, AL 01001  2003 EDU0152      9105 " AL"
 8 Autauga, AL 01001  2004 EDU0152      9200 " AL"
 9 Autauga, AL 01001  2005 EDU0152      9559 " AL"
10 Autauga, AL 01001  2006 EDU0152      9652 " AL"
# ℹ 31,440 more rows

[[2]]
# A tibble: 530 × 6
   area_name     STCOU  year measurement    count division
   <chr>         <chr> <dbl> <chr>          <dbl> <chr>   
 1 UNITED STATES 00000  1997 EDU0101     44534459 ERROR   
 2 UNITED STATES 00000  1998 EDU0101     46245814 ERROR   
 3 UNITED STATES 00000  1999 EDU0101     46368903 ERROR   
 4 UNITED STATES 00000  2000 EDU0102     46818690 ERROR   
 5 UNITED STATES 00000  2001 EDU0102     47127066 ERROR   
 6 UNITED STATES 00000  2002 EDU0102     47606570 ERROR   
 7 UNITED STATES 00000  2003 EDU0152     48506317 ERROR   
 8 UNITED STATES 00000  2004 EDU0152     48693287 ERROR   
 9 UNITED STATES 00000  2005 EDU0152     48978555 ERROR   
10 UNITED STATES 00000  2006 EDU0152     49140702 ERROR   
# ℹ 520 more rows
Wrapper Function

Combining the functions developed previously, we’ll create one wrapper function to perform all the steps.

my_wrapper <- function(url, value = "count") {
  read_csv(url) |>
    sel_pivot(value = value) |>
    add_yr_meas(value = value) |>
    sep_county_data()
}

my_wrapper(url = "https://www4.stat.ncsu.edu/~online/datasets/EDU01b.csv")

[[1]]
# A tibble: 31,450 × 6
   area_name   STCOU  year measurement count state
   <chr>       <chr> <dbl> <chr>       <dbl> <chr>
 1 Autauga, AL 01001  1997 EDU0101      8099 " AL"
 2 Autauga, AL 01001  1998 EDU0101      8211 " AL"
 3 Autauga, AL 01001  1999 EDU0101      8489 " AL"
 4 Autauga, AL 01001  2000 EDU0102      8912 " AL"
 5 Autauga, AL 01001  2001 EDU0102      8626 " AL"
 6 Autauga, AL 01001  2002 EDU0102      8762 " AL"
 7 Autauga, AL 01001  2003 EDU0152      9105 " AL"
 8 Autauga, AL 01001  2004 EDU0152      9200 " AL"
 9 Autauga, AL 01001  2005 EDU0152      9559 " AL"
10 Autauga, AL 01001  2006 EDU0152      9652 " AL"
# ℹ 31,440 more rows

[[2]]
# A tibble: 530 × 6
   area_name     STCOU  year measurement    count division
   <chr>         <chr> <dbl> <chr>          <dbl> <chr>   
 1 UNITED STATES 00000  1997 EDU0101     44534459 ERROR   
 2 UNITED STATES 00000  1998 EDU0101     46245814 ERROR   
 3 UNITED STATES 00000  1999 EDU0101     46368903 ERROR   
 4 UNITED STATES 00000  2000 EDU0102     46818690 ERROR   
 5 UNITED STATES 00000  2001 EDU0102     47127066 ERROR   
 6 UNITED STATES 00000  2002 EDU0102     47606570 ERROR   
 7 UNITED STATES 00000  2003 EDU0152     48506317 ERROR   
 8 UNITED STATES 00000  2004 EDU0152     48693287 ERROR   
 9 UNITED STATES 00000  2005 EDU0152     48978555 ERROR   
10 UNITED STATES 00000  2006 EDU0152     49140702 ERROR   
# ℹ 520 more rows

Call it and Combine

Use the preceding ‘my_wrapper’ function to transform/manipulate the 2 census datasets on enrollment which have been studied thus far - EDU01a & EDU01b.

EDU01a_transformed_data <- my_wrapper(url = "https://www4.stat.ncsu.edu/~online/datasets/EDU01a.csv")
EDU01b_transformed_data <- my_wrapper(url = "https://www4.stat.ncsu.edu/~online/datasets/EDU01b.csv")

head(EDU01a_transformed_data)

[[1]]
# A tibble: 31,450 × 6
   area_name   STCOU  year measurement count state
   <chr>       <chr> <dbl> <chr>       <dbl> <chr>
 1 Autauga, AL 01001  1987 EDU0101      6829 " AL"
 2 Autauga, AL 01001  1988 EDU0101      6900 " AL"
 3 Autauga, AL 01001  1989 EDU0101      6920 " AL"
 4 Autauga, AL 01001  1990 EDU0101      6847 " AL"
 5 Autauga, AL 01001  1991 EDU0101      7008 " AL"
 6 Autauga, AL 01001  1992 EDU0101      7137 " AL"
 7 Autauga, AL 01001  1993 EDU0101      7152 " AL"
 8 Autauga, AL 01001  1994 EDU0101      7381 " AL"
 9 Autauga, AL 01001  1995 EDU0101      7568 " AL"
10 Autauga, AL 01001  1996 EDU0101      7834 " AL"
# ℹ 31,440 more rows

[[2]]
# A tibble: 530 × 6
   area_name     STCOU  year measurement    count division
   <chr>         <chr> <dbl> <chr>          <dbl> <chr>   
 1 UNITED STATES 00000  1987 EDU0101     40024299 ERROR   
 2 UNITED STATES 00000  1988 EDU0101     39967624 ERROR   
 3 UNITED STATES 00000  1989 EDU0101     40317775 ERROR   
 4 UNITED STATES 00000  1990 EDU0101     40737600 ERROR   
 5 UNITED STATES 00000  1991 EDU0101     41385442 ERROR   
 6 UNITED STATES 00000  1992 EDU0101     42088151 ERROR   
 7 UNITED STATES 00000  1993 EDU0101     42724710 ERROR   
 8 UNITED STATES 00000  1994 EDU0101     43369917 ERROR   
 9 UNITED STATES 00000  1995 EDU0101     43993459 ERROR   
10 UNITED STATES 00000  1996 EDU0101     44715737 ERROR   
# ℹ 520 more rows

head(EDU01b_transformed_data)

[[1]]
# A tibble: 31,450 × 6
   area_name   STCOU  year measurement count state
   <chr>       <chr> <dbl> <chr>       <dbl> <chr>
 1 Autauga, AL 01001  1997 EDU0101      8099 " AL"
 2 Autauga, AL 01001  1998 EDU0101      8211 " AL"
 3 Autauga, AL 01001  1999 EDU0101      8489 " AL"
 4 Autauga, AL 01001  2000 EDU0102      8912 " AL"
 5 Autauga, AL 01001  2001 EDU0102      8626 " AL"
 6 Autauga, AL 01001  2002 EDU0102      8762 " AL"
 7 Autauga, AL 01001  2003 EDU0152      9105 " AL"
 8 Autauga, AL 01001  2004 EDU0152      9200 " AL"
 9 Autauga, AL 01001  2005 EDU0152      9559 " AL"
10 Autauga, AL 01001  2006 EDU0152      9652 " AL"
# ℹ 31,440 more rows

[[2]]
# A tibble: 530 × 6
   area_name     STCOU  year measurement    count division
   <chr>         <chr> <dbl> <chr>          <dbl> <chr>   
 1 UNITED STATES 00000  1997 EDU0101     44534459 ERROR   
 2 UNITED STATES 00000  1998 EDU0101     46245814 ERROR   
 3 UNITED STATES 00000  1999 EDU0101     46368903 ERROR   
 4 UNITED STATES 00000  2000 EDU0102     46818690 ERROR   
 5 UNITED STATES 00000  2001 EDU0102     47127066 ERROR   
 6 UNITED STATES 00000  2002 EDU0102     47606570 ERROR   
 7 UNITED STATES 00000  2003 EDU0152     48506317 ERROR   
 8 UNITED STATES 00000  2004 EDU0152     48693287 ERROR   
 9 UNITED STATES 00000  2005 EDU0152     48978555 ERROR   
10 UNITED STATES 00000  2006 EDU0152     49140702 ERROR   
# ℹ 520 more rows
Create a function that combines county data from EDU01a & EDU01b, and combines non-county data from EDU01a & EDU01b. The result will be 2 tibbles, one of combined county data, and one of combined non-county data.

combined_enrollment <- function(dataset_a, dataset_b) {
  county_df <- dplyr::bind_rows(dataset_a[[1]], dataset_b[[1]])
  state_df <- dplyr::bind_rows(dataset_a[[2]], dataset_b[[2]])
  combined_data_list <- list(county_df, state_df)
  return(combined_data_list)
}

census_EDU01 <- combined_enrollment(EDU01a_transformed_data, EDU01b_transformed_data)

head(census_EDU01)

[[1]]
# A tibble: 62,900 × 6
   area_name   STCOU  year measurement count state
   <chr>       <chr> <dbl> <chr>       <dbl> <chr>
 1 Autauga, AL 01001  1987 EDU0101      6829 " AL"
 2 Autauga, AL 01001  1988 EDU0101      6900 " AL"
 3 Autauga, AL 01001  1989 EDU0101      6920 " AL"
 4 Autauga, AL 01001  1990 EDU0101      6847 " AL"
 5 Autauga, AL 01001  1991 EDU0101      7008 " AL"
 6 Autauga, AL 01001  1992 EDU0101      7137 " AL"
 7 Autauga, AL 01001  1993 EDU0101      7152 " AL"
 8 Autauga, AL 01001  1994 EDU0101      7381 " AL"
 9 Autauga, AL 01001  1995 EDU0101      7568 " AL"
10 Autauga, AL 01001  1996 EDU0101      7834 " AL"
# ℹ 62,890 more rows

[[2]]
# A tibble: 1,060 × 6
   area_name     STCOU  year measurement    count division
   <chr>         <chr> <dbl> <chr>          <dbl> <chr>   
 1 UNITED STATES 00000  1987 EDU0101     40024299 ERROR   
 2 UNITED STATES 00000  1988 EDU0101     39967624 ERROR   
 3 UNITED STATES 00000  1989 EDU0101     40317775 ERROR   
 4 UNITED STATES 00000  1990 EDU0101     40737600 ERROR   
 5 UNITED STATES 00000  1991 EDU0101     41385442 ERROR   
 6 UNITED STATES 00000  1992 EDU0101     42088151 ERROR   
 7 UNITED STATES 00000  1993 EDU0101     42724710 ERROR   
 8 UNITED STATES 00000  1994 EDU0101     43369917 ERROR   
 9 UNITED STATES 00000  1995 EDU0101     43993459 ERROR   
10 UNITED STATES 00000  1996 EDU0101     44715737 ERROR   
# ℹ 1,050 more rows
…
Put it Together

Original datasets

Run your data processing function on the two enrollment URLs given previously, specifying an appro- priate name for the enrollment data column.

EDU01a_transformed_data <- my_wrapper(url = "https://www4.stat.ncsu.edu/~online/datasets/EDU01a.csv")
EDU01b_transformed_data <- my_wrapper(url = "https://www4.stat.ncsu.edu/~online/datasets/EDU01b.csv")

head(EDU01a_transformed_data)

[[1]]
# A tibble: 31,450 × 6
   area_name   STCOU  year measurement count state
   <chr>       <chr> <dbl> <chr>       <dbl> <chr>
 1 Autauga, AL 01001  1987 EDU0101      6829 " AL"
 2 Autauga, AL 01001  1988 EDU0101      6900 " AL"
 3 Autauga, AL 01001  1989 EDU0101      6920 " AL"
 4 Autauga, AL 01001  1990 EDU0101      6847 " AL"
 5 Autauga, AL 01001  1991 EDU0101      7008 " AL"
 6 Autauga, AL 01001  1992 EDU0101      7137 " AL"
 7 Autauga, AL 01001  1993 EDU0101      7152 " AL"
 8 Autauga, AL 01001  1994 EDU0101      7381 " AL"
 9 Autauga, AL 01001  1995 EDU0101      7568 " AL"
10 Autauga, AL 01001  1996 EDU0101      7834 " AL"
# ℹ 31,440 more rows

[[2]]
# A tibble: 530 × 6
   area_name     STCOU  year measurement    count division
   <chr>         <chr> <dbl> <chr>          <dbl> <chr>   
 1 UNITED STATES 00000  1987 EDU0101     40024299 ERROR   
 2 UNITED STATES 00000  1988 EDU0101     39967624 ERROR   
 3 UNITED STATES 00000  1989 EDU0101     40317775 ERROR   
 4 UNITED STATES 00000  1990 EDU0101     40737600 ERROR   
 5 UNITED STATES 00000  1991 EDU0101     41385442 ERROR   
 6 UNITED STATES 00000  1992 EDU0101     42088151 ERROR   
 7 UNITED STATES 00000  1993 EDU0101     42724710 ERROR   
 8 UNITED STATES 00000  1994 EDU0101     43369917 ERROR   
 9 UNITED STATES 00000  1995 EDU0101     43993459 ERROR   
10 UNITED STATES 00000  1996 EDU0101     44715737 ERROR   
# ℹ 520 more rows

head(EDU01b_transformed_data)

[[1]]
# A tibble: 31,450 × 6
   area_name   STCOU  year measurement count state
   <chr>       <chr> <dbl> <chr>       <dbl> <chr>
 1 Autauga, AL 01001  1997 EDU0101      8099 " AL"
 2 Autauga, AL 01001  1998 EDU0101      8211 " AL"
 3 Autauga, AL 01001  1999 EDU0101      8489 " AL"
 4 Autauga, AL 01001  2000 EDU0102      8912 " AL"
 5 Autauga, AL 01001  2001 EDU0102      8626 " AL"
 6 Autauga, AL 01001  2002 EDU0102      8762 " AL"
 7 Autauga, AL 01001  2003 EDU0152      9105 " AL"
 8 Autauga, AL 01001  2004 EDU0152      9200 " AL"
 9 Autauga, AL 01001  2005 EDU0152      9559 " AL"
10 Autauga, AL 01001  2006 EDU0152      9652 " AL"
# ℹ 31,440 more rows

[[2]]
# A tibble: 530 × 6
   area_name     STCOU  year measurement    count division
   <chr>         <chr> <dbl> <chr>          <dbl> <chr>   
 1 UNITED STATES 00000  1997 EDU0101     44534459 ERROR   
 2 UNITED STATES 00000  1998 EDU0101     46245814 ERROR   
 3 UNITED STATES 00000  1999 EDU0101     46368903 ERROR   
 4 UNITED STATES 00000  2000 EDU0102     46818690 ERROR   
 5 UNITED STATES 00000  2001 EDU0102     47127066 ERROR   
 6 UNITED STATES 00000  2002 EDU0102     47606570 ERROR   
 7 UNITED STATES 00000  2003 EDU0152     48506317 ERROR   
 8 UNITED STATES 00000  2004 EDU0152     48693287 ERROR   
 9 UNITED STATES 00000  2005 EDU0152     48978555 ERROR   
10 UNITED STATES 00000  2006 EDU0152     49140702 ERROR   
# ℹ 520 more rows

Run your data combining function to put these into one object (with two data frames)

census_EDU01 <- combined_enrollment(EDU01a_transformed_data, EDU01b_transformed_data)

head(census_EDU01)

[[1]]
# A tibble: 62,900 × 6
   area_name   STCOU  year measurement count state
   <chr>       <chr> <dbl> <chr>       <dbl> <chr>
 1 Autauga, AL 01001  1987 EDU0101      6829 " AL"
 2 Autauga, AL 01001  1988 EDU0101      6900 " AL"
 3 Autauga, AL 01001  1989 EDU0101      6920 " AL"
 4 Autauga, AL 01001  1990 EDU0101      6847 " AL"
 5 Autauga, AL 01001  1991 EDU0101      7008 " AL"
 6 Autauga, AL 01001  1992 EDU0101      7137 " AL"
 7 Autauga, AL 01001  1993 EDU0101      7152 " AL"
 8 Autauga, AL 01001  1994 EDU0101      7381 " AL"
 9 Autauga, AL 01001  1995 EDU0101      7568 " AL"
10 Autauga, AL 01001  1996 EDU0101      7834 " AL"
# ℹ 62,890 more rows

[[2]]
# A tibble: 1,060 × 6
   area_name     STCOU  year measurement    count division
   <chr>         <chr> <dbl> <chr>          <dbl> <chr>   
 1 UNITED STATES 00000  1987 EDU0101     40024299 ERROR   
 2 UNITED STATES 00000  1988 EDU0101     39967624 ERROR   
 3 UNITED STATES 00000  1989 EDU0101     40317775 ERROR   
 4 UNITED STATES 00000  1990 EDU0101     40737600 ERROR   
 5 UNITED STATES 00000  1991 EDU0101     41385442 ERROR   
 6 UNITED STATES 00000  1992 EDU0101     42088151 ERROR   
 7 UNITED STATES 00000  1993 EDU0101     42724710 ERROR   
 8 UNITED STATES 00000  1994 EDU0101     43369917 ERROR   
 9 UNITED STATES 00000  1995 EDU0101     43993459 ERROR   
10 UNITED STATES 00000  1996 EDU0101     44715737 ERROR   
# ℹ 1,050 more rows
…
New Datasets

Run the data processing function on the four data sets at URLs given

PST01a_transformed_data <- my_wrapper(url = "https://www4.stat.ncsu.edu/~online/datasets/PST01a.csv")
PST01b_transformed_data <- my_wrapper(url = "https://www4.stat.ncsu.edu/~online/datasets/PST01b.csv")
PST01c_transformed_data <- my_wrapper(url = "https://www4.stat.ncsu.edu/~online/datasets/PST01c.csv")
PST01d_transformed_data <- my_wrapper(url = "https://www4.stat.ncsu.edu/~online/datasets/PST01d.csv")

head(PST01a_transformed_data)

[[1]]
# A tibble: 31,450 × 6
   area_name   STCOU  year measurement count state
   <chr>       <chr> <dbl> <chr>       <dbl> <chr>
 1 Autauga, AL 01001  1971 PST0151     25508 " AL"
 2 Autauga, AL 01001  1972 PST0151     27166 " AL"
 3 Autauga, AL 01001  1973 PST0151     28463 " AL"
 4 Autauga, AL 01001  1974 PST0151     29266 " AL"
 5 Autauga, AL 01001  1975 PST0151     29718 " AL"
 6 Autauga, AL 01001  1976 PST0151     29896 " AL"
 7 Autauga, AL 01001  1977 PST0151     30462 " AL"
 8 Autauga, AL 01001  1978 PST0151     30882 " AL"
 9 Autauga, AL 01001  1979 PST0151     32055 " AL"
10 Autauga, AL 01001  1981 PST0251     31985 " AL"
# ℹ 31,440 more rows

[[2]]
# A tibble: 530 × 6
   area_name     STCOU  year measurement     count division
   <chr>         <chr> <dbl> <chr>           <dbl> <chr>   
 1 UNITED STATES 00000  1971 PST0151     206827028 ERROR   
 2 UNITED STATES 00000  1972 PST0151     209283904 ERROR   
 3 UNITED STATES 00000  1973 PST0151     211357490 ERROR   
 4 UNITED STATES 00000  1974 PST0151     213341552 ERROR   
 5 UNITED STATES 00000  1975 PST0151     215465246 ERROR   
 6 UNITED STATES 00000  1976 PST0151     217562728 ERROR   
 7 UNITED STATES 00000  1977 PST0151     219759860 ERROR   
 8 UNITED STATES 00000  1978 PST0151     222095080 ERROR   
 9 UNITED STATES 00000  1979 PST0151     224567234 ERROR   
10 UNITED STATES 00000  1981 PST0251     229466391 ERROR   
# ℹ 520 more rows

head(PST01b_transformed_data)

[[1]]
# A tibble: 31,450 × 6
   area_name   STCOU  year measurement count state
   <chr>       <chr> <dbl> <chr>       <dbl> <chr>
 1 Autauga, AL 01001  1982 PST0251     32038 " AL"
 2 Autauga, AL 01001  1983 PST0251     32057 " AL"
 3 Autauga, AL 01001  1984 PST0251     32130 " AL"
 4 Autauga, AL 01001  1985 PST0251     32248 " AL"
 5 Autauga, AL 01001  1986 PST0251     32895 " AL"
 6 Autauga, AL 01001  1987 PST0251     33266 " AL"
 7 Autauga, AL 01001  1988 PST0251     33637 " AL"
 8 Autauga, AL 01001  1989 PST0251     33996 " AL"
 9 Autauga, AL 01001  1990 PST0301     34222 " AL"
10 Autauga, AL 01001  1990 PST0351     34353 " AL"
# ℹ 31,440 more rows

[[2]]
# A tibble: 530 × 6
   area_name     STCOU  year measurement     count division
   <chr>         <chr> <dbl> <chr>           <dbl> <chr>   
 1 UNITED STATES 00000  1982 PST0251     231665106 ERROR   
 2 UNITED STATES 00000  1983 PST0251     233792697 ERROR   
 3 UNITED STATES 00000  1984 PST0251     235825544 ERROR   
 4 UNITED STATES 00000  1985 PST0251     237924311 ERROR   
 5 UNITED STATES 00000  1986 PST0251     240133472 ERROR   
 6 UNITED STATES 00000  1987 PST0251     242289738 ERROR   
 7 UNITED STATES 00000  1988 PST0251     244499776 ERROR   
 8 UNITED STATES 00000  1989 PST0251     246819839 ERROR   
 9 UNITED STATES 00000  1990 PST0301     248790925 ERROR   
10 UNITED STATES 00000  1990 PST0351     249622814 ERROR   
# ℹ 520 more rows

head(PST01c_transformed_data)

[[1]]
# A tibble: 31,450 × 6
   area_name   STCOU  year measurement count state
   <chr>       <chr> <dbl> <chr>       <dbl> <chr>
 1 Autauga, AL 01001  1991 PST0351     35010 " AL"
 2 Autauga, AL 01001  1992 PST0351     35985 " AL"
 3 Autauga, AL 01001  1993 PST0351     36953 " AL"
 4 Autauga, AL 01001  1994 PST0351     38186 " AL"
 5 Autauga, AL 01001  1995 PST0351     39112 " AL"
 6 Autauga, AL 01001  1996 PST0351     40207 " AL"
 7 Autauga, AL 01001  1997 PST0351     41238 " AL"
 8 Autauga, AL 01001  1998 PST0351     42106 " AL"
 9 Autauga, AL 01001  1999 PST0351     42963 " AL"
10 Autauga, AL 01001  2000 PST0402     43671 " AL"
# ℹ 31,440 more rows

[[2]]
# A tibble: 530 × 6
   area_name     STCOU  year measurement     count division
   <chr>         <chr> <dbl> <chr>           <dbl> <chr>   
 1 UNITED STATES 00000  1991 PST0351     252980941 ERROR   
 2 UNITED STATES 00000  1992 PST0351     256514224 ERROR   
 3 UNITED STATES 00000  1993 PST0351     259918588 ERROR   
 4 UNITED STATES 00000  1994 PST0351     263125821 ERROR   
 5 UNITED STATES 00000  1995 PST0351     266278393 ERROR   
 6 UNITED STATES 00000  1996 PST0351     269394284 ERROR   
 7 UNITED STATES 00000  1997 PST0351     272646925 ERROR   
 8 UNITED STATES 00000  1998 PST0351     275854104 ERROR   
 9 UNITED STATES 00000  1999 PST0351     279040168 ERROR   
10 UNITED STATES 00000  2000 PST0402     281424602 ERROR   
# ℹ 520 more rows

head(PST01d_transformed_data)

[[1]]
# A tibble: 31,450 × 6
   area_name   STCOU  year measurement count state
   <chr>       <chr> <dbl> <chr>       <dbl> <chr>
 1 Autauga, AL 01001  2000 PST0452     43872 " AL"
 2 Autauga, AL 01001  2001 PST0452     44434 " AL"
 3 Autauga, AL 01001  2002 PST0452     45157 " AL"
 4 Autauga, AL 01001  2003 PST0452     45762 " AL"
 5 Autauga, AL 01001  2004 PST0452     46933 " AL"
 6 Autauga, AL 01001  2005 PST0452     47870 " AL"
 7 Autauga, AL 01001  2006 PST0452     49105 " AL"
 8 Autauga, AL 01001  2007 PST0452     49834 " AL"
 9 Autauga, AL 01001  2008 PST0452     50354 " AL"
10 Autauga, AL 01001  2009 PST0452     50756 " AL"
# ℹ 31,440 more rows

[[2]]
# A tibble: 530 × 6
   area_name     STCOU  year measurement     count division
   <chr>         <chr> <dbl> <chr>           <dbl> <chr>   
 1 UNITED STATES 00000  2000 PST0452     282171957 ERROR   
 2 UNITED STATES 00000  2001 PST0452     285081556 ERROR   
 3 UNITED STATES 00000  2002 PST0452     287803914 ERROR   
 4 UNITED STATES 00000  2003 PST0452     290326418 ERROR   
 5 UNITED STATES 00000  2004 PST0452     293045739 ERROR   
 6 UNITED STATES 00000  2005 PST0452     295753151 ERROR   
 7 UNITED STATES 00000  2006 PST0452     298593212 ERROR   
 8 UNITED STATES 00000  2007 PST0452     301579895 ERROR   
 9 UNITED STATES 00000  2008 PST0452     304374846 ERROR   
10 UNITED STATES 00000  2009 PST0452     307006550 ERROR   
# ℹ 520 more rows
…
